[ {
  "uid" : "613b63039ad276bd",
  "name" : "assert2False",
  "time" : {
    "start" : 1668726968750,
    "stop" : 1668726968751,
    "duration" : 1
  },
  "status" : "passed",
  "severity" : "normal"
}, {
  "uid" : "972b55b13cf314ae",
  "name" : "assertEquals",
  "time" : {
    "start" : 1668726968766,
    "stop" : 1668726968766,
    "duration" : 0
  },
  "status" : "passed",
  "severity" : "normal"
}, {
  "uid" : "414cf1b464270a79",
  "name" : "assert2True",
  "time" : {
    "start" : 1668726968757,
    "stop" : 1668726968757,
    "duration" : 0
  },
  "status" : "passed",
  "severity" : "normal"
}, {
  "uid" : "f3fb0aafa17811ab",
  "name" : "assertFalse",
  "time" : {
    "start" : 1668726968774,
    "stop" : 1668726968779,
    "duration" : 5
  },
  "status" : "failed",
  "severity" : "normal"
}, {
  "uid" : "9738e046dafd3886",
  "name" : "assert2Equals",
  "time" : {
    "start" : 1668726968526,
    "stop" : 1668726968574,
    "duration" : 48
  },
  "status" : "passed",
  "severity" : "normal"
}, {
  "uid" : "1d4ce76a27e84a21",
  "name" : "assertTrue",
  "time" : {
    "start" : 1668726968797,
    "stop" : 1668726968797,
    "duration" : 0
  },
  "status" : "passed",
  "severity" : "normal"
} ]